{
  "type": "service_account",
  "project_id": "fsdbe-334616",
  "private_key_id": "4a0701b0422b5d0fca7ad0dcc64718d726366f13",
  "private_key": "-----BEGIN PRIVATE KEY-----\nMIIEvQIBADANBgkqhkiG9w0BAQEFAASCBKcwggSjAgEAAoIBAQCVthkShGVFUezk\nQH+5gidHxDutvpBAXJdcoemxdvUZ9TLOI14HXJhXYJLFKDjrYuPbnbMDj+f0etqQ\nIzT9WrcgBjB1C4kAK4Zvcacm42j5wwe9e8uXEJ4XfO7Qyi/JmzPqS/sxOInjG3cQ\nvC47cpffA8/8+OUpRd6886/2u3mAZaJUH4xdStV8UAqaKrDVYIPHHHDbk5P7RRhO\n4L9L1ZzObYxe0rpI6GbcLWzw1OMzOBv1RfRLSSGbKSnonjWHbj0uOvG1X8P9TKuG\n5u3B9Gl5GE87jU/3ttL1fjR5SbxoxK4z+DXmiBsiBN8mmAO+WO6GWycXuNXkFHW2\ntUkxrlLPAgMBAAECggEAHxFK4qzW1yvJHRTFbJm1zQ7L06JYDQMp5e8zr8Af3OMl\nR+HPAXgVpQxFaOSP60j6P/jZzUNvvyw/bunfdTP+DIc8Rw29wGtH2pibN1a50hrG\n4GtwNEkehYFHjcxnXk721wgteGljM93fN3nVnkCJg54m6zg7VfVJ46wuN+VvsVUU\nlOhDz7DNvp0vT/UPZ556quljhBOObxlEeU3NT6TnmMLPaztMwf8lzNlO8wmigVSH\nltumiQ7o/hf0ma1HbrQUkpE38QKQmeNtGjkOBcXQciXfSFG2RbAkjerqedmnZy4f\njOBJbErmu7vtocTZ+9xJv+XE/Bio6sCiDcJlStuxAQKBgQDP0VfYKyTeLqIN+WAF\npjCzeXE3TInhGLMWCloFMGjvNp+5z9Ie88sglXYRykFilxQLovi5nFwjpP1y0S/L\nq6lrFR17OCmX87zEfrGyXMxhqYmuLNKtiaF4b6F8GZKCT5AWZMezXcMrxblXXEhY\niInmE5XNUs/vpCZDsYJPVFyUowKBgQC4a/M12mtI7ueM8gbqfm+eu9K1Y9YmfKCz\nAoaaOwGfyGYQVi3vHETiD1EI/5AVyXxxFgFhv2NQ127TrC1WqKc+ZYFBcKplU+B8\ndbhjxl04wK45yb2sOsM9pX7ldezQEZJu8YbUN6vhYaqGoQDXKyZEwWMTQj5W01PA\ngc1sD+X/5QKBgQCrdlW8DRzGFEOws+f9wTi9W52FuqioB/D6ZmAPl/l8JN10OXtr\n/knCAI8B7pYz+eKYF0aQHeoHnsFeUinVKTUHHMzONXBb5sYAeWezec1HZtIp2uGY\nPM30yGW8Nn0i9vIzB8Ocweed3e0lnwYxxbXBFreqSIE3f3/yqiqRuVEJcQKBgB73\n2Z5YcB2OKInNdoXX92xjQ8271xEdamrE6M9rSymGoETsA8icKaEAS25EY/CUpfXj\naRX96nJ/ypd22SItLfBXYS4Y+jQLsq2TowP2Il9OU7NWgigysehfKwDjHYIPAVTp\n7+cg9hbhrJ3w2VBIaaOwCbAJNqij0fOImHMl9ExVAoGAEJ0X+QuCio8Fapy3fjwz\nHcewE6e/gnK+/rNziY3kUCXkaYeBAceWfKm4BimweAEQ8cRbPfBxoaMeRfAUBFWw\ngeTK3VM2kgt5DtS488a1pivkS/ncUYGuj8uz+obitHyFyORK2O2MPrlrikmtJ3Ct\nQe/GnCeSdCNmbupRhymDt04=\n-----END PRIVATE KEY-----\n",
  "client_email": "datastoreuser@fsdbe-334616.iam.gserviceaccount.com",
  "client_id": "104304590480155943774",
  "auth_uri": "https://accounts.google.com/o/oauth2/auth",
  "token_uri": "https://oauth2.googleapis.com/token",
  "auth_provider_x509_cert_url": "https://www.googleapis.com/oauth2/v1/certs",
  "client_x509_cert_url": "https://www.googleapis.com/robot/v1/metadata/x509/datastoreuser%40fsdbe-334616.iam.gserviceaccount.com"
}
